%YAML 1.1
%TAG !u! tag:unity3d.com,2011:
--- !u!114 &11400000
MonoBehaviour:
  m_ObjectHideFlags: 0
  m_CorrespondingSourceObject: {fileID: 0}
  m_PrefabInstance: {fileID: 0}
  m_PrefabAsset: {fileID: 0}
  m_GameObject: {fileID: 0}
  m_Enabled: 1
  m_EditorHideFlags: 0
  m_Script: {fileID: 11500000, guid: cb2afe458380a5a4aafc1781a445552d, type: 3}
  m_Name: vShooterController_SM_Chr_Cool_Male_01@IKAdjustList
  m_EditorClassIdentifier: 
  ikTargetPositionOffsetR: {x: 0, y: 0, z: 0}
  ikTargetRotationOffsetR: {x: 0, y: 0, z: 0}
  ikTargetPositionOffsetL: {x: 0, y: 0, z: 0}
  ikTargetRotationOffsetL: {x: 0, y: 0, z: 0}
  weaponIKAdjusts: []
